…
path_proj <- here::here()
path_src <- file.path(path_proj, "src")
path_data <- file.path(path_proj, "data")
path_cleaned <- file.path(path_data, "cleaned")
path_processed <- file.path(path_data, "processed")
path_figures <- file.path(path_data, "figures")

source(file.path(path_src, "20-processing.R"))
source(file.path(path_src, "30-eda.R"))

sari <- readRDS(file.path(path_processed, "sari_41002_20090614_20091122.rds"))
sari

#> # A tibble: 24 × 29
#>    date       delay0 delay1 delay2 delay3 delay4 delay5 delay6 delay7 delay8 delay9 delay10 delay11
#>    <date>      <dbl>  <dbl>  <dbl>  <dbl>  <dbl>  <dbl>  <dbl>  <dbl>  <dbl>  <dbl>   <dbl>   <dbl>
#>  1 2009-06-14      0      3      3      3      3      3      3      6      7      7       7       8
#>  2 2009-06-21      2      4      5      7      7      9     12     15     15     16      16      16
#>  3 2009-06-28      2     13     17     21     22     30     35     39     39     41      41      41
#>  4 2009-07-05     14     16     17     18     19     22     23     25     26     26      27      27
#>  5 2009-07-12      2     11     11     25     39     47     53     56     58     58      58      58
#>  6 2009-07-19      2     18     91    154    179    198    204    207    207    207     209     209
#>  7 2009-07-26     32    329    463    519    550    559    567    572    575    578     579     581
#>  8 2009-08-02    272    563    749    932   1025   1061   1080   1088   1094   1102    1109    1140
#>  9 2009-08-09    183    549    767    893    974   1050   1071   1091   1112   1119    1132    1146
#> 10 2009-08-16    145    417    510    573    643    667    681    699    738    748     757     761
#> # ℹ 14 more rows
#> # ℹ 16 more variables: delay12 <dbl>, delay13 <dbl>, delay14 <dbl>, delay15 <dbl>, delay16 <dbl>,
#> #   delay17 <dbl>, delay18 <dbl>, delay19 <dbl>, delay20 <dbl>, delay21 <dbl>, delay22 <dbl>,
#> #   delay23 <dbl>, delay24 <dbl>, delay25 <dbl>, delay26 <dbl>, cases_baseline <dbl>
…
