…
#>  [1] "date"    "delay0"  "delay1"  "delay2"  "delay3"  "delay4"  "delay5"  "delay6"  "delay7" 
#> [10] "delay8"  "delay9"  "delay10" "delay11" "delay12" "delay13" "delay14" "delay15"

Process data

Filter dates of interest from 2011-05-12 to 2011-06-06.

date_period <- as.Date(c("2011-05-12", "2011-06-06"))
huso <- huso |>
    filter(date >= date_period[1], date <= date_period[2]) |>
    mutate(cases_baseline = delay15)
huso

#> # A tibble: 26 × 18
#>    date       delay0 delay1 delay2 delay3 delay4 delay5 delay6 delay7 delay8 delay9 delay10 delay11
#>    <date>      <dbl>  <dbl>  <dbl>  <dbl>  <dbl>  <dbl>  <dbl>  <dbl>  <dbl>  <dbl>   <dbl>   <dbl>
#>  1 2011-05-12      0      0      0      0      0      0      0      0      0      0       0       0
#>  2 2011-05-13      0      0      0      0      0      0      0      0      0      0       0       2
#>  3 2011-05-14      0      0      0      0      0      0      0      0      0      0       0       0
#>  4 2011-05-15      0      0      0      0      0      0      0      0      0      1       3       7
#>  5 2011-05-16      0      0      0      0      0      0      0      0      0      2       5       7
#>  6 2011-05-17      0      0      0      0      0      0      0      5      7     13      16      16
#>  7 2011-05-18      0      0      0      0      0      0      2      3     12     14      14      14
#>  8 2011-05-19      0      0      0      0      1      6     11     20     23     23      23      23
#>  9 2011-05-20      0      0      0      0      4      9     13     19     19     21      26      27
#> 10 2011-05-21      0      0      0      3      9     26     41     41     41     48      52      53
#> # ℹ 16 more rows
#> # ℹ 5 more variables: delay12 <dbl>, delay13 <dbl>, delay14 <dbl>, delay15 <dbl>,
#> #   cases_baseline <dbl>
…
