…
source(file.path(path_src, "20-processing.R"))
source(file.path(path_src, "30-eda.R"))
source(file.path(path_src, "50-modelling.R"))
source(file.path(path_src, "60-summarise.R"))

huso <- readRDS(file.path(path_processed, "huso104_20110512_20110606.rds"))
huso

#> # A tibble: 26 × 18
#>    date       delay0 delay1 delay2 delay3 delay4 delay5 delay6 delay7 delay8 delay9 delay10 delay11
#>    <date>      <dbl>  <dbl>  <dbl>  <dbl>  <dbl>  <dbl>  <dbl>  <dbl>  <dbl>  <dbl>   <dbl>   <dbl>
#>  1 2011-05-12      0      0      0      0      0      0      0      0      0      0       0       0
#>  2 2011-05-13      0      0      0      0      0      0      0      0      0      0       0       2
#>  3 2011-05-14      0      0      0      0      0      0      0      0      0      0       0       0
#>  4 2011-05-15      0      0      0      0      0      0      0      0      0      1       3       7
#>  5 2011-05-16      0      0      0      0      0      0      0      0      0      2       5       7
#>  6 2011-05-17      0      0      0      0      0      0      0      5      7     13      16      16
#>  7 2011-05-18      0      0      0      0      0      0      2      3     12     14      14      14
#>  8 2011-05-19      0      0      0      0      1      6     11     20     23     23      23      23
#>  9 2011-05-20      0      0      0      0      4      9     13     19     19     21      26      27
#> 10 2011-05-21      0      0      0      3      9     26     41     41     41     48      52      53
#> # ℹ 16 more rows
#> # ℹ 5 more variables: delay12 <dbl>, delay13 <dbl>, delay14 <dbl>, delay15 <dbl>,
#> #   cases_baseline <dbl>
…
We select the last period which include all the data, and obtain predictive mean for all
models in long format data frame.

# select model for date
index <- length(huso_mcmc)
first_date <- min(huso$date)
last_date <- as.Date(names(huso_mcmc)[index])
dates <- seq(first_date, last_date, by = "1 day")

# prediction in long format
pred_long <- predmean_df(huso_mcmc[[index]], delays = 0:15, dates, "gompertz")
pred_long

#> # A tibble: 1,664 × 4
#>    method   date       delay   cases
#>    <fct>    <date>     <dbl>   <dbl>
#>  1 nonparam 2011-05-12     0 0.00317
#>  2 nonparam 2011-05-12     1 0.0144 
#>  3 nonparam 2011-05-12     2 0.0402 
#>  4 nonparam 2011-05-12     3 0.0757 
#>  5 nonparam 2011-05-12     4 0.122  
#>  6 nonparam 2011-05-12     5 0.166  
#>  7 nonparam 2011-05-12     6 0.213  
#>  8 nonparam 2011-05-12     7 0.251  
#>  9 nonparam 2011-05-12     8 0.289  
#> 10 nonparam 2011-05-12     9 0.330  
#> # ℹ 1,654 more rows
…
