…
sari <- readRDS(file.path(path_processed, "sari_41002_20090614_20091122.rds"))
sari_mcmc <- readRDS(file.path(path_modelled, "sari_41002_20090614_20091122_mcmc.rds"))
names(sari_mcmc)

#> [1] "2009-08-02" "2009-08-30" "2009-09-27" "2009-10-25" "2009-11-22"

Processing results

Obtain summarised date for reported cases and baseline cases, and summarise the nowcasting
results from the mcmc samples.

sari_summary <- reporcases_periods(sari, names(sari_mcmc))
sari_summary

#> # A tibble: 80 × 4
#>    date_end   date       cases_reported cases_baseline
#>    <chr>      <date>              <dbl>          <dbl>
#>  1 2009-08-02 2009-06-14              6              8
#>  2 2009-08-02 2009-06-21             12             19
#>  3 2009-08-02 2009-06-28             30             46
#>  4 2009-08-02 2009-07-05             19             30
#>  5 2009-08-02 2009-07-12             25             64
#>  6 2009-08-02 2009-07-19             91            223
#>  7 2009-08-02 2009-07-26            329            639
#>  8 2009-08-02 2009-08-02            272           1331
#>  9 2009-08-30 2009-06-14              8              8
#> 10 2009-08-30 2009-06-21             16             19
#> # ℹ 70 more rows

sari_nowcast <- nowcast_periods(sari_mcmc, date_by = "1 week")
sari_nowcast

#> # A tibble: 320 × 6
#>    date_end   model    date       median lower  upper
#>    <date>     <fct>    <date>      <dbl> <dbl>  <dbl>
#>  1 2009-08-02 nonparam 2009-06-14    12     4     24 
#>  2 2009-08-02 nonparam 2009-06-21    28    13     54 
#>  3 2009-08-02 nonparam 2009-06-28    82    46    152 
#>  4 2009-08-02 nonparam 2009-07-05    87    49    165 
#>  5 2009-08-02 nonparam 2009-07-12    72    38    140 
#>  6 2009-08-02 nonparam 2009-07-19   270   156    507 
#>  7 2009-08-02 nonparam 2009-07-26  2200  1280   4154 
#>  8 2009-08-02 nonparam 2009-08-02 13450. 7396. 26428.
#>  9 2009-08-02 exp      2009-06-14     4     1     10 
#> 10 2009-08-02 exp      2009-06-21    11     4     20 
#> # ℹ 310 more rows
…
