…
huso <- readRDS(file.path(path_processed, "huso104_20110512_20110606.rds"))
huso_mcmc <- readRDS(file.path(path_modelled, "huso104_20110512_20110606_mcmc.rds"))
names(huso_mcmc)

#> [1] "2011-05-25" "2011-05-28" "2011-05-31" "2011-06-03" "2011-06-06"

Processing results

Obtain summarised date for reported cases and baseline cases, and summarise the nowcasting
results from the mcmc samples.

huso_summary <- reporcases_periods(huso, names(huso_mcmc))
huso_summary

#> # A tibble: 100 × 4
#>    date_end   date       cases_reported cases_baseline
#>    <chr>      <date>              <dbl>          <dbl>
#>  1 2011-05-25 2011-05-12              1              2
#>  2 2011-05-25 2011-05-13              4              6
#>  3 2011-05-25 2011-05-14              0              1
#>  4 2011-05-25 2011-05-15              3              9
#>  5 2011-05-25 2011-05-16              2             12
#>  6 2011-05-25 2011-05-17              7             17
#>  7 2011-05-25 2011-05-18              3             19
#>  8 2011-05-25 2011-05-19             11             29
#>  9 2011-05-25 2011-05-20              9             35
#> 10 2011-05-25 2011-05-21              9             66
#> # ℹ 90 more rows

huso_nowcast <- nowcast_periods(huso_mcmc, date_by = "1 day")
huso_nowcast

#> # A tibble: 400 × 6
#>    date_end   model    date       median lower upper
#>    <date>     <fct>    <date>      <dbl> <dbl> <dbl>
#>  1 2011-05-25 nonparam 2011-05-12      0     0     2
#>  2 2011-05-25 nonparam 2011-05-13      1     0     5
#>  3 2011-05-25 nonparam 2011-05-14      0     0     1
#>  4 2011-05-25 nonparam 2011-05-15      1     0     5
#>  5 2011-05-25 nonparam 2011-05-16      1     0     4
#>  6 2011-05-25 nonparam 2011-05-17      7     2    18
#>  7 2011-05-25 nonparam 2011-05-18      4     0    14
#>  8 2011-05-25 nonparam 2011-05-19     27    10    68
#>  9 2011-05-25 nonparam 2011-05-20     36    12   102
#> 10 2011-05-25 nonparam 2011-05-21     77    25   239
#> # ℹ 390 more rows
…
