…
#> [1] "2011-05-25" "2011-05-28" "2011-05-31" "2011-06-03" "2011-06-06"

Processing results

Obtain summarised date for reported cases and baseline cases, and summarise the nowcasting
results from the mcmc samples at 95% and 70% credible level.

# empirical summaries
huso_summary <- reporcases_periods(huso, names(huso_mcmc))
huso_summary

#> # A tibble: 100 × 4
#>    date_end   date       cases_reported cases_baseline
#>    <chr>      <date>              <dbl>          <dbl>
#>  1 2011-05-25 2011-05-12              1              2
#>  2 2011-05-25 2011-05-13              4              6
#>  3 2011-05-25 2011-05-14              0              1
#>  4 2011-05-25 2011-05-15              3              9
#>  5 2011-05-25 2011-05-16              2             12
#>  6 2011-05-25 2011-05-17              7             17
#>  7 2011-05-25 2011-05-18              3             19
#>  8 2011-05-25 2011-05-19             11             29
#>  9 2011-05-25 2011-05-20              9             35
#> 10 2011-05-25 2011-05-21              9             66
#> # ℹ 90 more rows

# vertical windows per date
huso_aux <- tibble(date_end = names(huso_mcmc)) |>
    mutate(reference = as.Date(date_end) - lubridate::days(15))

# nowcasting
huso_nowcast_95 <- nowcast_periods(huso_mcmc, date_by = "1 day", alpha = 0.05) |>
    filter(model == "gom_ou")
huso_nowcast_95

#> # A tibble: 100 × 6
#>    date_end   model  date         mean lower upper
#>    <date>     <fct>  <date>      <dbl> <dbl> <dbl>
#>  1 2011-05-25 gom_ou 2011-05-12  0.794     0     5
#>  2 2011-05-25 gom_ou 2011-05-13 15.9       0    92
#>  3 2011-05-25 gom_ou 2011-05-14  0.967     0     6
#>  4 2011-05-25 gom_ou 2011-05-15 16.0       0    93
#>  5 2011-05-25 gom_ou 2011-05-16  8.17      0    47
#>  6 2011-05-25 gom_ou 2011-05-17 46.5       5   214
#>  7 2011-05-25 gom_ou 2011-05-18 18.0       1    85
#>  8 2011-05-25 gom_ou 2011-05-19 65.7       9   266
#>  9 2011-05-25 gom_ou 2011-05-20 69.0       7   327
#> 10 2011-05-25 gom_ou 2011-05-21 79.0       6   388
#> # ℹ 90 more rows

huso_nowcast_70 <- nowcast_periods(huso_mcmc, date_by = "1 day", alpha = 0.3) |>
    filter(model == "gom_ou")
huso_nowcast_70

#> # A tibble: 100 × 6
#>    date_end   model  date         mean lower upper
#>    <date>     <fct>  <date>      <dbl> <dbl> <dbl>
#>  1 2011-05-25 gom_ou 2011-05-12  0.794     0     1
#>  2 2011-05-25 gom_ou 2011-05-13 15.9       1    18
#>  3 2011-05-25 gom_ou 2011-05-14  0.967     0     1
#>  4 2011-05-25 gom_ou 2011-05-15 16.0       1    20
#>  5 2011-05-25 gom_ou 2011-05-16  8.17      0    11
#>  6 2011-05-25 gom_ou 2011-05-17 46.5      11    70
#>  7 2011-05-25 gom_ou 2011-05-18 18.0       3    27
#>  8 2011-05-25 gom_ou 2011-05-19 65.7      18   103
#>  9 2011-05-25 gom_ou 2011-05-20 69.0      14   108
#> 10 2011-05-25 gom_ou 2011-05-21 79.0      14   126
#> # ℹ 90 more rows

huso_nowcast_50 <- nowcast_periods(huso_mcmc, date_by = "1 day", alpha = 0.5) |>
    filter(model == "gom_ou")
huso_nowcast_50

#> # A tibble: 100 × 6
#>    date_end   model  date         mean lower upper
#>    <date>     <fct>  <date>      <dbl> <dbl> <dbl>
#>  1 2011-05-25 gom_ou 2011-05-12  0.794     0     1
#>  2 2011-05-25 gom_ou 2011-05-13 15.9       2    11
#>  3 2011-05-25 gom_ou 2011-05-14  0.967     0     1
#>  4 2011-05-25 gom_ou 2011-05-15 16.0       2    12
#>  5 2011-05-25 gom_ou 2011-05-16  8.17      1     7
#>  6 2011-05-25 gom_ou 2011-05-17 46.5      14    48
#>  7 2011-05-25 gom_ou 2011-05-18 18.0       5    19
#>  8 2011-05-25 gom_ou 2011-05-19 65.7      24    73
#>  9 2011-05-25 gom_ou 2011-05-20 69.0      20    73
#> 10 2011-05-25 gom_ou 2011-05-21 79.0      19    82
#> # ℹ 90 more rows
…
